-------------------------------------------------------------------------------
Test set: TaxDemo.com.tax.domain.elements.TestTaxCalculator
-------------------------------------------------------------------------------
Tests run: 7, Failures: 0, Errors: 0, Skipped: 0, Time elapsed: 0.145 sec
