/mnt/c/users/andrew/onedrive/documents/COMP 386 - Coding Best Practices/Assignment 3/assignment_3/src/main/java/TaxDemo/com/tax/domain/elements/CanadianPensionPlan.java
/mnt/c/users/andrew/onedrive/documents/COMP 386 - Coding Best Practices/Assignment 3/assignment_3/src/main/java/TaxDemo/com/tax/domain/elements/Tax.java
/mnt/c/users/andrew/onedrive/documents/COMP 386 - Coding Best Practices/Assignment 3/assignment_3/src/main/java/com/tax/utilities/Utility.java
/mnt/c/users/andrew/onedrive/documents/COMP 386 - Coding Best Practices/Assignment 3/assignment_3/src/main/java/TaxDemo/com/tax/domain/elements/Deduction.java
/mnt/c/users/andrew/onedrive/documents/COMP 386 - Coding Best Practices/Assignment 3/assignment_3/src/main/java/com/tax/utilities/CanadianTax.java
/mnt/c/users/andrew/onedrive/documents/COMP 386 - Coding Best Practices/Assignment 3/assignment_3/src/main/java/TaxDemo/com/tax/domain/elements/Employee.java
/mnt/c/users/andrew/onedrive/documents/COMP 386 - Coding Best Practices/Assignment 3/assignment_3/src/main/java/TaxDemo/com/tax/domain/elements/EmploymentInsurance.java
/mnt/c/users/andrew/onedrive/documents/COMP 386 - Coding Best Practices/Assignment 3/assignment_3/src/main/java/TaxDemo/com/tax/domain/elements/FederalTax.java
/mnt/c/users/andrew/onedrive/documents/COMP 386 - Coding Best Practices/Assignment 3/assignment_3/src/main/java/TaxDemo/com/tax/domain/elements/ProvincialTax.java
/mnt/c/users/andrew/onedrive/documents/COMP 386 - Coding Best Practices/Assignment 3/assignment_3/src/main/java/TaxDemo/com/tax/domain/elements/Province.java
